varioscan analysis
…
skip <- 14 #each time, 14 rows of plate info that will be skipped
collect <- 8 #there are 8 rows of OD data that I will keep
reps <- nrow(df) %/% (skip + collect) #number of repetitions
index <- rep(0:(reps - 1), each = collect) * (skip + collect) + (1 : collect) + skip
df <- df[index, ] #collect the blocks of OD data
df <- df[, 1:13]
colnames(df) <- columns
df[2:13] <- lapply(df[2:13], function(x) as.numeric(as.character(x)))
df

## # A tibble: 872 x 13
##    row   `1_1` `1_2` `1_3`  `1_c`  `2_1`  `2_2` `2_3`  `2_c`  `3_1`  `3_2`
##    <chr> <dbl> <dbl> <dbl>  <dbl>  <dbl>  <dbl> <dbl>  <dbl>  <dbl>  <dbl>
##  1 A     0.465 0.400 0.399 0.366  0.131  0.146  0.137 0.118  0.101  0.144 
##  2 B     0.321 0.350 0.349 0.328  0.130  0.141  0.138 0.162  0.118  0.109 
##  3 C     0.260 0.243 0.236 0.216  0.131  0.135  0.125 0.129  0.0950 0.125 
##  4 D     0.172 0.189 0.176 0.164  0.117  0.0998 0.141 0.127  0.101  0.120 
##  5 E     0.166 0.169 0.160 0.149  0.128  0.105  0.127 0.113  0.104  0.112 
##  6 F     0.138 0.148 0.154 0.141  0.0976 0.113  0.110 0.116  0.109  0.124 
##  7 G     0.147 0.131 0.112 0.130  0.104  0.105  0.107 0.0980 0.112  0.113 
##  8 H     0.117 0.123 0.104 0.0980 0.0993 0.0974 0.126 0.104  0.106  0.111 
##  9 A     0.348 0.263 0.277 0.259  0.101  0.109  0.102 0.0952 0.0825 0.0861
## 10 B     0.267 0.291 0.293 0.270  0.107  0.104  0.109 0.119  0.0850 0.0800
## # ... with 862 more rows, and 2 more variables: `3_3` <dbl>, `3_c` <dbl>
…
